…
```r
combined_data
```

```
## # A tibble: 108 × 8
##    sample_id submission_date analysis_…¹ compo…² compo…³ compo…⁴ compo…⁵ compo…⁶
##    <chr>     <date>          <chr>         <dbl>   <dbl>   <dbl>   <dbl>   <dbl>
##  1 TR_001    2018-01-27      30/3/2018 …    8.90    9.24  18.2     21.6    33.4 
##  2 TR_002    2018-01-27      30/3/2018 …    7.98   10.0   18.7     20.8    33.0 
##  3 TR_003    2018-01-27      30/3/2018 …    8.66    8.92  19.3     20.2    32.0 
##  4 TR_004    2018-01-27      30/3/2018 …    4.52    4.01   8.88    11.4    17.2 
##  5 TR_005    2018-01-27      30/3/2018 …    4.84    4.18   8.59    11.8    16.9 
##  6 TR_006    2018-01-27      30/3/2018 …    4.45    3.69   8.97     9.42   16.8 
##  7 TR_007    2018-01-27      30/3/2018 …    1.54    2.18   0.217    2.05    8.49
##  8 TR_008    2018-01-27      30/3/2018 …    1.65    2.02   0.216    2.40    9.07
##  9 TR_009    2018-01-27      30/3/2018 …    1.59    2.08   0.218    2.28    8.80
## 10 TR_010    2018-02-27      30/3/2018 …    7.83   13.4   18.3     20.1    31.4 
## # … with 98 more rows, and abbreviated variable names ¹​analysis_date_time,
## #   ²​compound_1, ³​compound_2, ⁴​compound_3, ⁵​compound_4, ⁶​compound_5
```
…
```r
combined_data
```

```
## # A tibble: 108 × 9
##    sample_id submissio…¹ analy…² compo…³ compo…⁴ compo…⁵ compo…⁶ compo…⁷ sourc…⁸
##    <chr>     <date>      <chr>     <dbl>   <dbl>   <dbl>   <dbl>   <dbl> <chr>  
##  1 TR_001    2018-01-27  30/3/2…    8.90    9.24  18.2     21.6    33.4  /Users…
##  2 TR_002    2018-01-27  30/3/2…    7.98   10.0   18.7     20.8    33.0  /Users…
##  3 TR_003    2018-01-27  30/3/2…    8.66    8.92  19.3     20.2    32.0  /Users…
##  4 TR_004    2018-01-27  30/3/2…    4.52    4.01   8.88    11.4    17.2  /Users…
##  5 TR_005    2018-01-27  30/3/2…    4.84    4.18   8.59    11.8    16.9  /Users…
##  6 TR_006    2018-01-27  30/3/2…    4.45    3.69   8.97     9.42   16.8  /Users…
##  7 TR_007    2018-01-27  30/3/2…    1.54    2.18   0.217    2.05    8.49 /Users…
##  8 TR_008    2018-01-27  30/3/2…    1.65    2.02   0.216    2.40    9.07 /Users…
##  9 TR_009    2018-01-27  30/3/2…    1.59    2.08   0.218    2.28    8.80 /Users…
## 10 TR_010    2018-02-27  30/3/2…    7.83   13.4   18.3     20.1    31.4  /Users…
## # … with 98 more rows, and abbreviated variable names ¹​submission_date,
## #   ²​analysis_date_time, ³​compound_1, ⁴​compound_2, ⁵​compound_3, ⁶​compound_4,
## #   ⁷​compound_5, ⁸​source_file
```

Now we can use what we know of working with strings to get the batch numbe rinto its own column.


```r
combined_data %>% 
  mutate(batch = stringr::str_extract(source_file, "(?<=Batch_)[:digit:]{1}")) %>% # extract the date using regex
  select(-source_file) # we dont need it anymore
```

```
## # A tibble: 108 × 9
##    sample_id submission_…¹ analy…² compo…³ compo…⁴ compo…⁵ compo…⁶ compo…⁷ batch
##    <chr>     <date>        <chr>     <dbl>   <dbl>   <dbl>   <dbl>   <dbl> <chr>
##  1 TR_001    2018-01-27    30/3/2…    8.90    9.24  18.2     21.6    33.4  1    
##  2 TR_002    2018-01-27    30/3/2…    7.98   10.0   18.7     20.8    33.0  1    
##  3 TR_003    2018-01-27    30/3/2…    8.66    8.92  19.3     20.2    32.0  1    
##  4 TR_004    2018-01-27    30/3/2…    4.52    4.01   8.88    11.4    17.2  1    
##  5 TR_005    2018-01-27    30/3/2…    4.84    4.18   8.59    11.8    16.9  1    
##  6 TR_006    2018-01-27    30/3/2…    4.45    3.69   8.97     9.42   16.8  1    
##  7 TR_007    2018-01-27    30/3/2…    1.54    2.18   0.217    2.05    8.49 1    
##  8 TR_008    2018-01-27    30/3/2…    1.65    2.02   0.216    2.40    9.07 1    
##  9 TR_009    2018-01-27    30/3/2…    1.59    2.08   0.218    2.28    8.80 1    
## 10 TR_010    2018-02-27    30/3/2…    7.83   13.4   18.3     20.1    31.4  1    
## # … with 98 more rows, and abbreviated variable names ¹​submission_date,
## #   ²​analysis_date_time, ³​compound_1, ⁴​compound_2, ⁵​compound_3, ⁶​compound_4,
## #   ⁷​compound_5
```
