…
I could use `case_when()` to allocate different lengths to different classes


```r
penguins %>% 
  mutate(fliper_group = case_when(
    flipper_length_mm <= 190 ~ "Short",
    190 < flipper_length_mm & flipper_length_mm <= 210 ~ "Medium",
    flipper_length_mm > 210 ~ "Long",
  ))
```

```
## # A tibble: 344 × 9
##    species island    bill_length_mm bill_d…¹ flipp…² body_…³ sex    year flipe…⁴
##    <fct>   <fct>              <dbl>    <dbl>   <int>   <int> <fct> <int> <chr>  
##  1 Adelie  Torgersen           39.1     18.7     181    3750 male   2007 Short  
##  2 Adelie  Torgersen           39.5     17.4     186    3800 fema…  2007 Short  
##  3 Adelie  Torgersen           40.3     18       195    3250 fema…  2007 Medium 
##  4 Adelie  Torgersen           NA       NA        NA      NA <NA>   2007 <NA>   
##  5 Adelie  Torgersen           36.7     19.3     193    3450 fema…  2007 Medium 
##  6 Adelie  Torgersen           39.3     20.6     190    3650 male   2007 Short  
##  7 Adelie  Torgersen           38.9     17.8     181    3625 fema…  2007 Short  
##  8 Adelie  Torgersen           39.2     19.6     195    4675 male   2007 Medium 
##  9 Adelie  Torgersen           34.1     18.1     193    3475 <NA>   2007 Medium 
## 10 Adelie  Torgersen           42       20.2     190    4250 <NA>   2007 Short  
## # … with 334 more rows, and abbreviated variable names ¹​bill_depth_mm,
## #   ²​flipper_length_mm, ³​body_mass_g, ⁴​fliper_group
```

One "trick" we didn't see the last time is that you can create an **"Other** class for everything else if you don't care or you don't want to type all possible options


```r
penguins %>% 
  mutate(fliper_group = case_when(
    flipper_length_mm <= 190 ~ "Short",
    190 < flipper_length_mm & flipper_length_mm <= 210 ~ "Medium",
    TRUE ~ "Other"
  ))
```

```
## # A tibble: 344 × 9
##    species island    bill_length_mm bill_d…¹ flipp…² body_…³ sex    year flipe…⁴
##    <fct>   <fct>              <dbl>    <dbl>   <int>   <int> <fct> <int> <chr>  
##  1 Adelie  Torgersen           39.1     18.7     181    3750 male   2007 Short  
##  2 Adelie  Torgersen           39.5     17.4     186    3800 fema…  2007 Short  
##  3 Adelie  Torgersen           40.3     18       195    3250 fema…  2007 Medium 
##  4 Adelie  Torgersen           NA       NA        NA      NA <NA>   2007 Other  
##  5 Adelie  Torgersen           36.7     19.3     193    3450 fema…  2007 Medium 
##  6 Adelie  Torgersen           39.3     20.6     190    3650 male   2007 Short  
##  7 Adelie  Torgersen           38.9     17.8     181    3625 fema…  2007 Short  
##  8 Adelie  Torgersen           39.2     19.6     195    4675 male   2007 Medium 
##  9 Adelie  Torgersen           34.1     18.1     193    3475 <NA>   2007 Medium 
## 10 Adelie  Torgersen           42       20.2     190    4250 <NA>   2007 Short  
## # … with 334 more rows, and abbreviated variable names ¹​bill_depth_mm,
## #   ²​flipper_length_mm, ³​body_mass_g, ⁴​fliper_group
```
…
It needs three things:

- A condition that results in TRUE/FALSE
- What to do if the condition is TRUE
- What to do if the condition is FALSE


```r
penguins %>% 
  mutate(fliper_group = if_else(flipper_length_mm <= 190, "Short", "Not short"))
```

```
## # A tibble: 344 × 9
##    species island    bill_length_mm bill_d…¹ flipp…² body_…³ sex    year flipe…⁴
##    <fct>   <fct>              <dbl>    <dbl>   <int>   <int> <fct> <int> <chr>  
##  1 Adelie  Torgersen           39.1     18.7     181    3750 male   2007 Short  
##  2 Adelie  Torgersen           39.5     17.4     186    3800 fema…  2007 Short  
##  3 Adelie  Torgersen           40.3     18       195    3250 fema…  2007 Not sh…
##  4 Adelie  Torgersen           NA       NA        NA      NA <NA>   2007 <NA>   
##  5 Adelie  Torgersen           36.7     19.3     193    3450 fema…  2007 Not sh…
##  6 Adelie  Torgersen           39.3     20.6     190    3650 male   2007 Short  
##  7 Adelie  Torgersen           38.9     17.8     181    3625 fema…  2007 Short  
##  8 Adelie  Torgersen           39.2     19.6     195    4675 male   2007 Not sh…
##  9 Adelie  Torgersen           34.1     18.1     193    3475 <NA>   2007 Not sh…
## 10 Adelie  Torgersen           42       20.2     190    4250 <NA>   2007 Short  
## # … with 334 more rows, and abbreviated variable names ¹​bill_depth_mm,
## #   ²​flipper_length_mm, ³​body_mass_g, ⁴​fliper_group
```


It can get a bit complicated, but you can **nest** `if_elses()` inside of each other providing a lot of flexibility if you have more than two conditions


```r
penguins %>% 
  mutate(fliper_group = if_else(flipper_length_mm <= 190, "Short",
                                if_else(190 < flipper_length_mm & flipper_length_mm <= 210, "Medium", "Long")))
```

```
## # A tibble: 344 × 9
##    species island    bill_length_mm bill_d…¹ flipp…² body_…³ sex    year flipe…⁴
##    <fct>   <fct>              <dbl>    <dbl>   <int>   <int> <fct> <int> <chr>  
##  1 Adelie  Torgersen           39.1     18.7     181    3750 male   2007 Short  
##  2 Adelie  Torgersen           39.5     17.4     186    3800 fema…  2007 Short  
##  3 Adelie  Torgersen           40.3     18       195    3250 fema…  2007 Medium 
##  4 Adelie  Torgersen           NA       NA        NA      NA <NA>   2007 <NA>   
##  5 Adelie  Torgersen           36.7     19.3     193    3450 fema…  2007 Medium 
##  6 Adelie  Torgersen           39.3     20.6     190    3650 male   2007 Short  
##  7 Adelie  Torgersen           38.9     17.8     181    3625 fema…  2007 Short  
##  8 Adelie  Torgersen           39.2     19.6     195    4675 male   2007 Medium 
##  9 Adelie  Torgersen           34.1     18.1     193    3475 <NA>   2007 Medium 
## 10 Adelie  Torgersen           42       20.2     190    4250 <NA>   2007 Short  
## # … with 334 more rows, and abbreviated variable names ¹​bill_depth_mm,
## #   ²​flipper_length_mm, ³​body_mass_g, ⁴​fliper_group
```
…
## Base R `ifelse()`


```r
penguins %>% 
  mutate(fliper_group = ifelse(flipper_length_mm <= 190, "Short",
                                ifelse(190 < flipper_length_mm & flipper_length_mm <= 210, "Medium",
                                        ifelse(flipper_length_mm > 210, "Long", NA))))
```

```
## # A tibble: 344 × 9
##    species island    bill_length_mm bill_d…¹ flipp…² body_…³ sex    year flipe…⁴
##    <fct>   <fct>              <dbl>    <dbl>   <int>   <int> <fct> <int> <chr>  
##  1 Adelie  Torgersen           39.1     18.7     181    3750 male   2007 Short  
##  2 Adelie  Torgersen           39.5     17.4     186    3800 fema…  2007 Short  
##  3 Adelie  Torgersen           40.3     18       195    3250 fema…  2007 Medium 
##  4 Adelie  Torgersen           NA       NA        NA      NA <NA>   2007 <NA>   
##  5 Adelie  Torgersen           36.7     19.3     193    3450 fema…  2007 Medium 
##  6 Adelie  Torgersen           39.3     20.6     190    3650 male   2007 Short  
##  7 Adelie  Torgersen           38.9     17.8     181    3625 fema…  2007 Short  
##  8 Adelie  Torgersen           39.2     19.6     195    4675 male   2007 Medium 
##  9 Adelie  Torgersen           34.1     18.1     193    3475 <NA>   2007 Medium 
## 10 Adelie  Torgersen           42       20.2     190    4250 <NA>   2007 Short  
## # … with 334 more rows, and abbreviated variable names ¹​bill_depth_mm,
## #   ²​flipper_length_mm, ³​body_mass_g, ⁴​fliper_group
```
…
```r
penguins %>% 
  mutate(flipper_group = 
           if(flipper_length_mm <= 190){"Short"}else{"Not short"}
           )
```

```
## Warning in if (flipper_length_mm <= 190) {: the condition has length > 1 and
## only the first element will be used
```

```
## # A tibble: 344 × 9
##    species island    bill_length_mm bill_d…¹ flipp…² body_…³ sex    year flipp…⁴
##    <fct>   <fct>              <dbl>    <dbl>   <int>   <int> <fct> <int> <chr>  
##  1 Adelie  Torgersen           39.1     18.7     181    3750 male   2007 Short  
##  2 Adelie  Torgersen           39.5     17.4     186    3800 fema…  2007 Short  
##  3 Adelie  Torgersen           40.3     18       195    3250 fema…  2007 Short  
##  4 Adelie  Torgersen           NA       NA        NA      NA <NA>   2007 Short  
##  5 Adelie  Torgersen           36.7     19.3     193    3450 fema…  2007 Short  
##  6 Adelie  Torgersen           39.3     20.6     190    3650 male   2007 Short  
##  7 Adelie  Torgersen           38.9     17.8     181    3625 fema…  2007 Short  
##  8 Adelie  Torgersen           39.2     19.6     195    4675 male   2007 Short  
##  9 Adelie  Torgersen           34.1     18.1     193    3475 <NA>   2007 Short  
## 10 Adelie  Torgersen           42       20.2     190    4250 <NA>   2007 Short  
## # … with 334 more rows, and abbreviated variable names ¹​bill_depth_mm,
## #   ²​flipper_length_mm, ³​body_mass_g, ⁴​flipper_group
```

That means that in order to get the traditional `if(){}else{}` to work, we would need to **"walk it"** though the data set. Good thing that we now know how to do that! Let's bring all the `map()` power on!


```r
penguins %>% 
  mutate(flipper_group = pmap_chr(list(flipper_length_mm),
                              ~ if(is.na(..1)){NA}
                              else if(..1 <= 190){"Short"}
                              else if(190 <..1 & ..1 <= 210){"Medium"}
                              else{"Long"}))
```

```
## # A tibble: 344 × 9
##    species island    bill_length_mm bill_d…¹ flipp…² body_…³ sex    year flipp…⁴
##    <fct>   <fct>              <dbl>    <dbl>   <int>   <int> <fct> <int> <chr>  
##  1 Adelie  Torgersen           39.1     18.7     181    3750 male   2007 Short  
##  2 Adelie  Torgersen           39.5     17.4     186    3800 fema…  2007 Short  
##  3 Adelie  Torgersen           40.3     18       195    3250 fema…  2007 Medium 
##  4 Adelie  Torgersen           NA       NA        NA      NA <NA>   2007 <NA>   
##  5 Adelie  Torgersen           36.7     19.3     193    3450 fema…  2007 Medium 
##  6 Adelie  Torgersen           39.3     20.6     190    3650 male   2007 Short  
##  7 Adelie  Torgersen           38.9     17.8     181    3625 fema…  2007 Short  
##  8 Adelie  Torgersen           39.2     19.6     195    4675 male   2007 Medium 
##  9 Adelie  Torgersen           34.1     18.1     193    3475 <NA>   2007 Medium 
## 10 Adelie  Torgersen           42       20.2     190    4250 <NA>   2007 Short  
## # … with 334 more rows, and abbreviated variable names ¹​bill_depth_mm,
## #   ²​flipper_length_mm, ³​body_mass_g, ⁴​flipper_group
```
…
  penguins_pepe$flipper_group[i] <- if(is.na(penguins_pepe$flipper_length_mm[i])){NA}
  else if(penguins_pepe$flipper_length_mm[i] <= 190){"Short"}
  else if(190 < penguins_pepe$flipper_length_mm[i] & penguins_pepe$flipper_length_mm[i] <= 210){"Medium"}
  else{"Long"}

}


print(penguins_pepe)
```

```
## # A tibble: 344 × 9
##    species island    bill_length_mm bill_d…¹ flipp…² body_…³ sex    year flipp…⁴
##    <fct>   <fct>              <dbl>    <dbl>   <int>   <int> <fct> <int> <chr>  
##  1 Adelie  Torgersen           39.1     18.7     181    3750 male   2007 Short  
##  2 Adelie  Torgersen           39.5     17.4     186    3800 fema…  2007 Short  
##  3 Adelie  Torgersen           40.3     18       195    3250 fema…  2007 Medium 
##  4 Adelie  Torgersen           NA       NA        NA      NA <NA>   2007 <NA>   
##  5 Adelie  Torgersen           36.7     19.3     193    3450 fema…  2007 Medium 
##  6 Adelie  Torgersen           39.3     20.6     190    3650 male   2007 Short  
##  7 Adelie  Torgersen           38.9     17.8     181    3625 fema…  2007 Short  
##  8 Adelie  Torgersen           39.2     19.6     195    4675 male   2007 Medium 
##  9 Adelie  Torgersen           34.1     18.1     193    3475 <NA>   2007 Medium 
## 10 Adelie  Torgersen           42       20.2     190    4250 <NA>   2007 Short  
## # … with 334 more rows, and abbreviated variable names ¹​bill_depth_mm,
## #   ²​flipper_length_mm, ³​body_mass_g, ⁴​flipper_group
```
…
```r
source(here("functions", "sort_flipper.R"))
```



```r
penguins_pepe %>% 
  sort_flipper()
```

```
## # A tibble: 344 × 9
##    species island    bill_length_mm bill_d…¹ flipp…² body_…³ sex    year flipp…⁴
##    <fct>   <fct>              <dbl>    <dbl>   <int>   <int> <fct> <int> <chr>  
##  1 Adelie  Torgersen           39.1     18.7     181    3750 male   2007 Short  
##  2 Adelie  Torgersen           39.5     17.4     186    3800 fema…  2007 Short  
##  3 Adelie  Torgersen           40.3     18       195    3250 fema…  2007 Medium 
##  4 Adelie  Torgersen           NA       NA        NA      NA <NA>   2007 <NA>   
##  5 Adelie  Torgersen           36.7     19.3     193    3450 fema…  2007 Medium 
##  6 Adelie  Torgersen           39.3     20.6     190    3650 male   2007 Short  
##  7 Adelie  Torgersen           38.9     17.8     181    3625 fema…  2007 Short  
##  8 Adelie  Torgersen           39.2     19.6     195    4675 male   2007 Medium 
##  9 Adelie  Torgersen           34.1     18.1     193    3475 <NA>   2007 Medium 
## 10 Adelie  Torgersen           42       20.2     190    4250 <NA>   2007 Short  
## # … with 334 more rows, and abbreviated variable names ¹​bill_depth_mm,
## #   ²​flipper_length_mm, ³​body_mass_g, ⁴​flipper_group
```
